{
	"content": [
		{
			"id": 1,
			"name": "Garummon",
			"href": "https://digi-api.com/api/v1/digimon/1",
			"image": "https://digi-api.com/images/digimon/w/Garummon.png"
		},
		{
			"id": 2,
			"name": "Craniummon",
			"href": "https://digi-api.com/api/v1/digimon/2",
			"image": "https://digi-api.com/images/digimon/w/Craniummon.png"
		},
		{
			"id": 3,
			"name": "Holy Angemon",
			"href": "https://digi-api.com/api/v1/digimon/3",
			"image": "https://digi-api.com/images/digimon/w/Holy_Angemon.png"
		},
		{
			"id": 4,
			"name": "Ancient Beatmon",
			"href": "https://digi-api.com/api/v1/digimon/4",
			"image": "https://digi-api.com/images/digimon/w/Ancient_Beatmon.png"
		},
		{
			"id": 5,
			"name": "Dukemon(Crimson Mode)",
			"href": "https://digi-api.com/api/v1/digimon/5",
			"image": "https://digi-api.com/images/digimon/w/Dukemon(Crimson_Mode).png"
		}
	],
	"pageable": {
		"currentPage": 0,
		"elementsOnPage": 5,
		"totalElements": 1422,
		"totalPages": 283,
		"previousPage": "",
		"nextPage": "https://digi-api.com/api/v1/digimon?page=1"
	}
}
