{
	"content": [
		{
			"id": 6,
			"name": "Footmon",
			"href": "https://digi-api.com/api/v1/digimon/6",
			"image": "https://digi-api.com/images/digimon/w/Footmon.png"
		},
		{
			"id": 7,
			"name": "Apocalymon",
			"href": "https://digi-api.com/api/v1/digimon/7",
			"image": "https://digi-api.com/images/digimon/w/Apocalymon.png"
		},
		{
			"id": 8,
			"name": "Mush-Upped Mach Leomon",
			"href": "https://digi-api.com/api/v1/digimon/8",
			"image": "https://digi-api.com/images/digimon/w/Mush-Upped_Mach_Leomon.png"
		},
		{
			"id": 9,
			"name": "Chibickmon",
			"href": "https://digi-api.com/api/v1/digimon/9",
			"image": "https://digi-api.com/images/digimon/w/Chibickmon.png"
		},
		{
			"id": 10,
			"name": "Zombiemon",
			"href": "https://digi-api.com/api/v1/digimon/10",
			"image": "https://digi-api.com/images/digimon/w/Zombiemon.png"
		}
	],
	"pageable": {
		"currentPage": 1,
		"elementsOnPage": 5,
		"totalElements": 1422,
		"totalPages": 283,
		"previousPage": "https://digi-api.com/api/v1/digimon?page=0",
		"nextPage": "https://digi-api.com/api/v1/digimon?page=2"
	}
}
